{
  "base": "7.2.0",
  "conda": "7.2.0",
  "coverage": "7.2.0",
  "data": "7.2.0",
  "doc": "7.2.0",
  "git": "7.2.0",
  "gitlab": "7.2.0",
  "glabbase": "3.0.0",
  "glabpkg": "3.0.0",
  "glabpkg_dev": "3.0.0",
  "license": "7.2.0",
  "pypi": "7.2.0",
  "pyproject": "7.2.0",
  "reqs": "7.2.0",
  "sphinx": "7.2.0",
  "src": "7.2.0",
  "test": "7.2.0",
  "version": "7.2.0"
}